<svg xmlns="http://www.w3.org/2000/svg" viewBox="0 0 200 200">

<title>wne inspector logo</title>  
  <circle cx="100" cy="100" r="100" fill="#44213f"/>
  <text x="25" y="145" font-family="Graduate" font-size="120" fill="#fec136">
    W
  </text>
  <text x="140" y="145" font-family="Graduate" font-size="100" fill="#fec136">
    i
  </text>
  <defs>
<style type="text/css">
@import url("http://fonts.googleapis.com/css?family=Graduate|Fontdiner+Swanky|Crafty+Girls|Pacifico|Satisfy|Gloria+Hallelujah|Bangers|Audiowide|Sacramento");
</style>
</defs>
</svg>